{
  "name": "ironclaw2e",
  "title": "Ironclaw Second Edition",
  "description": "Ironclaw Second Edition system for FoundryVTT.",
  "version": "0.5.3",
  "minimumCoreVersion": "9",
  "compatibleCoreVersion": "9.242",
  "templateVersion": 22,
  "author": "Hertzila",
  "esmodules": [ "module/ironclaw2e.js" ],
  "styles": [ "css/ironclaw2e.css" ],
  "scripts": [],
  "packs": [
    {
      "name": "customrolls",
      "label": "Customizable Rolls",
      "system": "ironclaw2e",
      "module": "ironclaw2e",
      "path": "packs/customizable-rolls.db",
      "entity": "Macro"
    },
    {
      "name": "systeminfo",
      "label": "System Info",
      "system": "ironclaw2e",
      "module": "ironclaw2e",
      "path": "packs/system-info.db",
      "entity": "JournalEntry"
    },
    {
      "name": "statuseffects",
      "label": "Status Effects",
      "system": "ironclaw2e",
      "module": "ironclaw2e",
      "path": "packs/status-effects.db",
      "entity": "JournalEntry"
    }
  ],
  "languages": [
    {
      "lang": "en",
      "name": "English",
      "path": "lang/en.json"
    }
  ],
  "dependencies": [],
  "gridDistance": 1,
  "gridUnits": "pc",
  "primaryTokenAttribute": "null",
  "secondaryTokenAttribute": "null",
  "url": "https://gitlab.com/Hertzila/ironclaw2e-foundryvtt-system/",
  "manifest": "https://gitlab.com/Hertzila/ironclaw2e-foundryvtt-system/-/raw/master/system.json",
  "download": "https://gitlab.com/Hertzila/ironclaw2e-foundryvtt-system/-/archive/v0.5.3/ironclaw2e-foundryvtt-system-v0.5.3.zip",
  "license": "LICENSE.txt"
}
